%YAML 1.1
%TAG !u! tag:unity3d.com,2011:
--- !u!221 &22100000
AnimatorOverrideController:
  m_ObjectHideFlags: 0
  m_CorrespondingSourceObject: {fileID: 0}
  m_PrefabInstance: {fileID: 0}
  m_PrefabAsset: {fileID: 0}
  m_Name: Trap
  m_Controller: {fileID: 9100000, guid: 423b7cefca3805d42a2b268f05e5e611, type: 2}
  m_Clips:
  - m_OriginalClip: {fileID: 7400000, guid: bb202946401e62e49be9e124779e4971, type: 2}
    m_OverrideClip: {fileID: 7400000, guid: bb202946401e62e49be9e124779e4971, type: 2}
